HW: Foundations of Inference in R
…
Randomized data under null model of independence

# Exercise 1

# Specify variables
homeown_perm <- homes %>% 
  specify(HomeOwn ~ Gender, success = "Own")

# Print results to console
homeown_perm

Response: HomeOwn (factor)
Explanatory: Gender (factor)
# A tibble: 9,712 x 2
   HomeOwn Gender
   <fct>   <fct> 
 1 Own     male  
 2 Own     male  
 3 Own     male  
 4 Own     male  
 5 Rent    female
 6 Rent    male  
 7 Own     male  
 8 Own     female
 9 Own     female
10 Own     female
#  with 9,702 more rows

# Exercise 2

# Hypothesize independence
homeown_perm <- homes %>%
  specify(HomeOwn ~ Gender, success = "Own") %>% 
  hypothesize(null = "independence")

# Print results to console
homeown_perm

Response: HomeOwn (factor)
Explanatory: Gender (factor)
Null Hypothesis: independence
# A tibble: 9,712 x 2
   HomeOwn Gender
   <fct>   <fct> 
 1 Own     male  
 2 Own     male  
 3 Own     male  
 4 Own     male  
 5 Rent    female
 6 Rent    male  
 7 Own     male  
 8 Own     female
 9 Own     female
10 Own     female
#  with 9,702 more rows
# Exercise 3

# Perform 10 permutations
homeown_perm <- homes %>% 
  specify(HomeOwn ~ Gender, success = "Own") %>% 
  hypothesize(null = "independence") %>% 
  generate(reps = 10, type = "permute")

# Print results to console
homeown_perm

Response: HomeOwn (factor)
Explanatory: Gender (factor)
Null Hypothesis: independence
# A tibble: 97,120 x 3
# Groups:   replicate [10]
   HomeOwn Gender replicate
   <fct>   <fct>      <int>
 1 Rent    male           1
 2 Own     male           1
 3 Own     male           1
 4 Own     male           1
 5 Rent    female         1
 6 Rent    male           1
 7 Own     male           1
 8 Rent    female         1
 9 Own     female         1
10 Rent    female         1
#  with 97,110 more rows
Randomized statistics and dotplot

# Exercise 1

# Perform 100 permutations
homeown_perm <- homes %>% 
  specify(HomeOwn ~ Gender, success = "Own") %>% 
  hypothesize(null = "independence") %>% 
  generate(reps = 100, type = "permute") %>%
  calculate("diff in props", order = c("male", "female"))

# Print results to console
homeown_perm

# A tibble: 100 x 2
   replicate     stat
       <int>    <dbl>
 1         1 -0.00700
 2         2 -0.00659
 3         3 -0.00206
 4         4  0.00700
 5         5 -0.0107 
 6         6 -0.00247
 7         7 -0.00700
 8         8  0.0128 
 9         9  0.0115 
10        10 -0.00412
#  with 90 more rows
…
# Create data frame of permuted differences in purchase rates
opp_perm <- opportunity %>%
  # Specify decision vs. group, where success is buying a DVD
  specify(decision ~ group, success = "buyDVD") %>%
  # Set the null hypothesis to independence
  hypothesize(null = "independence") %>%
  # Generate 1000 reps of type permute
  generate(reps = 1000, type = "permute") %>%
  # Calculate the summary stat difference in proportions
  calculate(stat = "diff in props", order = c("treatment", "control"))
    
# Review the result
opp_perm

# A tibble: 1,000 x 2
   replicate    stat
       <int>   <dbl>
 1         1 -0.0133
 2         2  0.0133
 3         3  0.0400
 4         4  0.0400
 5         5  0.0667
 6         6  0.0667
 7         7  0.0667
 8         8 -0.0133
 9         9 -0.0933
10        10  0.0133
#  with 990 more rows
…
Resampling from a sample

# Exercise 1

# Compute p-hat for each poll
ex1_props <- all_polls %>% 
  # Group by poll
  group_by(poll) %>% 
  # Calculate proportion of yes votes
  summarize(stat = mean(vote == "yes"))
  
# Review the result
ex1_props

# A tibble: 1,000 x 2
    poll  stat
   <int> <dbl>
 1     1 0.7  
 2     2 0.667
 3     3 0.633
 4     4 0.633
 5     5 0.4  
 6     6 0.6  
 7     7 0.5  
 8     8 0.533
 9     9 0.567
10    10 0.567
#  with 990 more rows
…
